<?xml version="1.0" encoding="UTF-8"?>
<svg width="40px" height="40px" viewBox="0 0 40 40" version="1.1" xmlns="http://www.w3.org/2000/svg" xmlns:xlink="http://www.w3.org/1999/xlink">
    <title>building</title>
    <defs>
        <linearGradient x1="111.967154%" y1="-30.3419444%" x2="0%" y2="89.0824262%" id="linearGradient-1">
            <stop stop-color="#42b4e7" offset="0%"></stop>
            <stop stop-color="#1C7FAB" offset="100%"></stop>
        </linearGradient>
    </defs>
    <g id="Page-1" stroke="none" stroke-width="1" fill="none" fill-rule="evenodd">
        <g id="006-AddApp" transform="translate(-546.000000, -468.000000)" fill-rule="nonzero">
            <g id="building" transform="translate(546.000000, 468.000000)">
                <circle id="Oval" fill-opacity="0.0977655157" fill="#42b4e7" cx="20" cy="20" r="20"></circle>
                <path d="M31.1029687,29.0390625 L8.89703125,29.0390625 C8.50835938,29.0390625 8.203125,29.3449219 8.203125,29.734375 C8.203125,30.1236719 8.5084375,30.4296875 8.89703125,30.4296875 L31.1028906,30.4296875 C31.4915625,30.4296875 31.7967969,30.1236719 31.7967969,29.734375 C31.7967969,29.3449219 31.4915625,29.0390625 31.1029687,29.0390625 Z M12.3667187,25.5625 C12.3667187,25.1730469 12.6720312,24.8671875 13.060625,24.8671875 L15.8363281,24.8671875 C16.225,24.8671875 16.5302344,25.173125 16.5302344,25.5625 L16.5302344,27.6484375 L19.3059375,27.6484375 L19.3059375,10.265625 C19.3059375,9.88132812 18.9955469,9.5703125 18.6120313,9.5703125 L10.2849219,9.5703125 C9.90132812,9.5703125 9.59101562,9.88125 9.59101562,10.265625 L9.59101562,27.6484375 L12.3667187,27.6484375 L12.3667187,25.5625 Z M13.060625,12.3515625 L15.8363281,12.3515625 C16.2199219,12.3515625 16.5302344,12.6625 16.5302344,13.046875 C16.5302344,13.43125 16.2198437,13.7421875 15.8363281,13.7421875 L13.060625,13.7421875 C12.6770312,13.7421875 12.3667187,13.43125 12.3667187,13.046875 C12.3667187,12.6625 12.6771094,12.3515625 13.060625,12.3515625 Z M13.060625,15.1328125 L15.8363281,15.1328125 C16.2199219,15.1328125 16.5302344,15.44375 16.5302344,15.828125 C16.5302344,16.2125 16.2198437,16.5234375 15.8363281,16.5234375 L13.060625,16.5234375 C12.6770312,16.5234375 12.3667187,16.2125 12.3667187,15.828125 C12.3667187,15.44375 12.6771094,15.1328125 13.060625,15.1328125 Z M13.060625,17.9140625 L15.8363281,17.9140625 C16.2199219,17.9140625 16.5302344,18.2250781 16.5302344,18.609375 C16.5302344,18.9936719 16.2198437,19.3046875 15.8363281,19.3046875 L13.060625,19.3046875 C12.6770312,19.3046875 12.3667187,18.9936719 12.3667187,18.609375 C12.3667187,18.2250781 12.6771094,17.9140625 13.060625,17.9140625 Z M13.060625,20.6953125 L15.8363281,20.6953125 C16.2199219,20.6953125 16.5302344,21.0063281 16.5302344,21.390625 C16.5302344,21.7749219 16.2198437,22.0859375 15.8363281,22.0859375 L13.060625,22.0859375 C12.6770312,22.0859375 12.3667187,21.7749219 12.3667187,21.390625 C12.3667187,21.0063281 12.6771094,20.6953125 13.060625,20.6953125 Z M23.4696875,25.5625 C23.4696875,25.1730469 23.775,24.8671875 24.1635938,24.8671875 L26.9392969,24.8671875 C27.3279688,24.8671875 27.6332031,25.173125 27.6332031,25.5625 L27.6332031,27.6484375 L30.4089844,27.6484375 L30.4089844,15.828125 C30.4089844,15.4438281 30.0985938,15.1328125 29.7150781,15.1328125 L21.3878906,15.1328125 C21.0042969,15.1328125 20.6939844,15.44375 20.6939844,15.828125 L20.6939844,27.6484375 L23.4696875,27.6484375 L23.4696875,25.5625 Z M24.1635938,17.9140625 L26.9392969,17.9140625 C27.3228906,17.9140625 27.6332031,18.2250781 27.6332031,18.609375 C27.6332031,18.9936719 27.3228125,19.3046875 26.9392969,19.3046875 L24.1635938,19.3046875 C23.78,19.3046875 23.4696875,18.9936719 23.4696875,18.609375 C23.4696875,18.2250781 23.7800781,17.9140625 24.1635938,17.9140625 Z M24.1635938,20.6953125 L26.9392969,20.6953125 C27.3228906,20.6953125 27.6332031,21.0063281 27.6332031,21.390625 C27.6332031,21.7749219 27.3228125,22.0859375 26.9392969,22.0859375 L24.1635938,22.0859375 C23.78,22.0859375 23.4696875,21.7749219 23.4696875,21.390625 C23.4696875,21.0063281 23.7800781,20.6953125 24.1635938,20.6953125 Z" id="Shape" fill="url(#linearGradient-1)"></path>
            </g>
        </g>
    </g>
</svg>