<?xml version="1.0" encoding="UTF-8"?>
<svg width="245px" height="147px" viewBox="0 0 245 147" version="1.1" xmlns="http://www.w3.org/2000/svg" xmlns:xlink="http://www.w3.org/1999/xlink">
    <title>charater-01</title>
    <defs>
        <rect id="path-1" x="0" y="0" width="249" height="148"></rect>
    </defs>
    <g id="Page-1" stroke="none" stroke-width="1" fill="none" fill-rule="evenodd">
        <g id="charater-01" transform="translate(-4.000000, -1.000000)">
            <mask id="mask-2" fill="white">
                <use xlink:href="#path-1"></use>
            </mask>
            <g id="Mask"></g>
            <g id="Group-7-Copy-5" mask="url(#mask-2)">
                <g transform="translate(72.000000, 1.000000)">
                    <g id="freepik--character-2--inject-231-copy">
                        <path d="M134.704365,75 L124.089651,91.429276 L108.581221,84.7962194 L99.7674445,80.1760846 L89,81.364667 L104.183879,90.7902532 L104.183879,90.7902532 L118.99866,104.791243 C120.939609,107.06642 123.863781,108.247799 126.833067,107.956379 C129.802354,107.664959 132.443389,105.937384 133.908898,103.32788 L146,81.786422 L134.704365,75 Z" id="Path" fill="#FFBE9D" fill-rule="nonzero"></path>
                        <path d="M105,83.5009599 C100.478808,81.9670719 95.8301505,80.7959821 91.1028905,80 C90.811713,80.2891278 91.1955379,81.2570772 91.5462745,81.514778 C91.9484046,81.8022183 92.4111668,82.0037571 92.9028971,82.1056043 C93.3732007,82.1579412 93.8326631,82.2765721 94.2661374,82.4575859 C94.8532393,82.8347409 95.3129013,83.3651876 95.5896716,83.9849346 C96.8404114,85.9082627 99.7720398,87.1276276 102.650727,86.9893491" id="Path" fill="#FFBE9D" fill-rule="nonzero"></path>
                        <path d="M102.694395,87.9368234 C102.599148,87.9693276 102.499688,87.9857581 102.399644,87.9855155 C102.118287,88.0048282 101.836049,88.0048282 101.554692,87.9855155 C100.507079,87.9278373 99.4777049,87.6710342 98.5154856,87.2273089 C97.846411,86.9209342 97.2239132,86.510687 96.6683815,86.0100047 C96.359661,85.7279763 96.0787485,85.4133365 95.8299797,85.0709415 C95.5745291,84.7092282 95.3714787,84.2988228 95.1749782,83.9231975 C94.9642227,83.5312331 94.6468739,83.2160345 94.2645262,83.0189144 C93.8422344,82.8487513 93.4025366,82.7320131 92.9545233,82.6711132 C92.4608669,82.5450776 91.9984779,82.3078551 91.5986703,81.9755108 C91.3970543,81.78607 91.2419314,81.5473188 91.1467193,81.2799084 C91.0369628,81.007956 90.9876552,80.7128132 91.002619,80.4173614 C91.0193269,80.2894719 91.0692221,80.1690446 91.1467193,80.0695602 L91.2056694,80 L91.2973696,80 C94.6148881,80.5957339 97.8858889,81.4537101 101.083091,82.5667728 C102.307944,82.9910903 103.290446,83.3528036 103.965098,83.6101764 C104.320145,83.730637 104.6661,83.8794571 105,84.055362 C104.6344,83.9827392 104.275101,83.87804 103.925798,83.7423409 L101.017591,82.8102337 C97.811902,81.7761303 94.5478494,80.9583252 91.2449695,80.3617132 L91.3956199,80.3060651 C91.3696893,80.3483173 91.3518811,80.3955974 91.3432197,80.4451855 C91.3393334,80.9115923 91.5033435,81.3619627 91.8017208,81.7042259 C92.164371,81.9956976 92.5787767,82.2062798 93.0200235,82.323312 C93.4916354,82.390062 93.9536509,82.5185666 94.3955265,82.7058933 C94.8221653,82.9351801 95.1754032,83.2933722 95.4107788,83.7353849 C96.0802574,85.1877763 97.2127649,86.3411922 98.6071858,86.9908041 C99.5391531,87.4436168 100.534982,87.730332 101.554692,87.839439 C102.288294,87.9298673 102.694395,87.8881312 102.694395,87.9368234 Z" id="Path" fill="#EB996E" fill-rule="nonzero"></path>
                        <path d="M43,134.246497 L28.4327334,141.850963 L26.0518609,144.615021 C25.3511359,145.423998 24.360182,145.918967 23.2972698,145.990905 C22.2343576,146.062842 21.186676,145.705846 20.3849908,144.99855 L0,127.071848 C0,127.071848 0.826418548,124.162313 2.88590604,124.836796 C4.94539353,125.51128 21.1720561,130.450876 21.1720561,130.450876 L34.7423734,122 L43,134.246497 Z" id="Path" fill="#fff" fill-rule="nonzero"></path>
                        <path d="M60,133.495298 L56.5490567,139.695925 L56.5490567,147 L26.3883216,147 C26.3883216,147 25.1531131,144.404389 27.0886975,143.595611 C29.024282,142.786834 43.9932261,136.109718 43.9932261,136.109718 L50.2456732,127 L60,133.495298 Z" id="Path" fill="#fff" fill-rule="nonzero"></path>
                        <path d="M80,90 C80,90 71.6046775,90.664311 68.6035458,92.6572438 C65.6024142,94.6501767 28,122.086219 28,122.086219 L37.2714699,137 L63.209355,124.510954 L80,90 Z" id="Path" fill="#23527C" fill-rule="nonzero"></path>
                        <g id="Group" opacity="0.5" transform="translate(28.000000, 90.000000)" fill="#000000" fill-rule="nonzero">
                            <path d="M51.9025,0.274166667 C51.9025,0.274166667 43.5565,0.926944444 40.573,2.88527778 C37.5895,4.84361111 0.208,31.8033333 0.208,31.8033333 L9.425,46.4581944 L35.2105,34.1859722 L51.9025,0.274166667 Z" id="Path"></path>
                        </g>
                        <path d="M168,123.794027 C168,123.794027 164.834439,137.664757 164.025247,139.801705 C162.87943,142.806382 151.078168,149.618711 136.693963,145.934096 C121.804823,142.13292 86.4075093,113.348887 86.4075093,113.348887 L82.8600097,115.939126 L60.7140314,136.512101 C60.7140314,136.512101 48,131.266867 48,126.008681 C48,126.008681 74.9169769,84.9145367 77.3704483,84.1439405 C79.8239197,83.3733444 82.3421266,82.6027482 85.3199547,83.2308812 C88.2977828,83.8590142 133.068781,108.408006 133.068781,108.408006 L133.068781,108.408006 L168,123.794027 Z" id="Path" fill="#23527C" fill-rule="nonzero"></path>
                        <g id="Group" opacity="0.5" transform="translate(48.000000, 82.000000)" fill="#000000" fill-rule="nonzero">
                            <path d="M119.716129,41.3636364 C119.716129,41.3636364 116.56129,55.4272727 115.754839,57.5939394 C114.612903,60.640404 102.851613,67.5474747 88.516129,63.8116162 C73.6774194,59.9575758 38.4,30.7732323 38.4,30.7732323 L34.8645161,33.3994949 L12.7935484,54.2585859 C12.7935484,54.2585859 0.122580645,48.940404 0.122580645,43.6090909 C0.122580645,43.6090909 26.9483871,1.94343434 29.3935484,1.16212121 C31.8387097,0.380808081 34.3483871,-0.400505051 37.316129,0.236363636 C40.283871,0.873232323 84.9032258,25.7636364 84.9032258,25.7636364 L84.9032258,25.7636364 L119.716129,41.3636364 Z" id="Path"></path>
                        </g>
                        <path d="M76.0178874,106 C76.0876251,106.199297 76.1341347,106.407847 76.1562646,106.620487 C76.2510889,107.181661 76.398676,107.729997 76.5965554,108.256315 L76.8167009,108.763986 C76.8544401,108.855649 76.8921793,108.94026 76.9362084,109.031923 L77.0934552,109.29281 L77.4205284,109.828684 L77.8356598,110.350457 C78.4744973,111.097391 79.2234914,111.715185 80.0496939,112.176662 C81.5660767,113.010719 83.2049684,113.529151 84.8866038,113.706726 C86.1823169,113.861847 86.9937101,113.81249 87,113.875949 C86.8137404,113.935155 86.6212192,113.965986 86.4276219,113.967612 C85.9083728,114.010796 85.3869832,114.010796 84.8677342,113.967612 C83.1396677,113.862627 81.4488671,113.363586 79.8987371,112.501007 C79.0388106,112.021739 78.2648595,111.369243 77.6155143,110.576089 L77.1940931,110.026112 L76.86073,109.454982 L76.7034832,109.179994 L76.5902656,108.890903 L76.37641,108.355029 C76.1922487,107.804151 76.0758651,107.227725 76.0304672,106.64164 C75.9946253,106.430014 75.9903742,106.213186 76.0178874,106 Z" id="Path" fill="#263238" fill-rule="nonzero"></path>
                        <path d="M86.9989099,113 C86.8126638,112.935176 86.6388922,112.840965 86.4846993,112.721218 C86.0405712,112.440904 85.6115091,112.139017 85.1991729,111.816727 C83.7911885,110.76622 82.6062202,109.464259 81.7089687,107.981931 C80.8509051,106.476869 80.3153813,104.820963 80.1341989,103.112545 C80.067363,102.600681 80.0287429,102.085761 80.0185015,101.569954 C79.9938328,101.380713 79.9938328,101.189241 80.0185015,101 C80.0763502,101 80.1341989,101.805369 80.3463108,103.081569 C80.5960869,104.743775 81.1487994,106.350327 81.9789293,107.827052 C82.8631477,109.274377 83.9979515,110.565096 85.3341532,111.643263 C86.349719,112.485803 87.031048,112.950439 86.9989099,113 Z" id="Path" fill="#263238" fill-rule="nonzero"></path>
                        <path d="M60.3126447,137 C60.2085563,136.975701 60.1066215,136.942762 60.007874,136.901519 L59.1259843,136.553553 C58.0161364,136.124408 56.933353,135.62669 55.8837425,135.063208 C54.2445769,134.213725 52.7046243,133.180886 51.2927281,131.984037 C50.4226725,131.24831 49.6236499,130.430524 48.9064382,129.54171 C48.0885379,128.567122 47.4435267,127.456477 47,126.259011 L47,126.199923 L47.0453914,126.134269 L55.7605373,113.095391 C60.8832793,105.479531 65.6299213,98.6515191 69.1639648,93.7865602 C70.9277443,91.3507981 72.4062066,89.4008754 73.3918481,88.0615345 L74.5720241,86.5252317 L74.8832793,86.1313079 L75,86 C75,86 75,86.0590886 74.9157017,86.1510041 L74.6303844,86.5646241 C74.3537131,86.9454171 73.9776131,87.4706488 73.5020843,88.1403193 L69.3584993,93.930999 C65.8763316,98.8353502 61.1621121,105.669928 56.0393701,113.292353 C52.8554887,118.019439 49.8661417,122.483908 47.2918018,126.304969 L47.2918018,126.180227 C47.7197223,127.343794 48.3403033,128.425045 49.1269106,129.377575 C49.8248301,130.262549 50.6067024,131.076167 51.4613247,131.806771 C52.8574018,133.009067 54.3795556,134.052644 56.0004632,134.918769 C57.0338736,135.49596 58.0966449,136.01754 59.1843446,136.481334 L60.0467809,136.855561 C60.1385559,136.897504 60.2273851,136.945763 60.3126447,137 L60.3126447,137 Z" id="Path" fill="#263238" fill-rule="nonzero"></path>
                        <path d="M44,135 C43.807788,134.840017 43.6343309,134.658478 43.4829932,134.458904 C43.1632653,134.10274 42.7278912,133.561644 42.1972789,132.890411 C40.8212906,131.133249 39.5383286,129.304224 38.3537415,127.410959 C37.1689389,125.512757 36.083556,123.55346 35.1020408,121.541096 C34.7278912,120.760274 34.4217687,120.130137 34.2517007,119.684932 C34.1372862,119.469194 34.0526068,119.238763 34,119 C34.1509921,119.199257 34.2788099,119.415278 34.3809524,119.643836 C34.6394558,120.136986 34.952381,120.739726 35.3265306,121.445205 C36.122449,122.958904 37.2721088,125.027397 38.6530612,127.246575 C40.0340136,129.465753 41.3741497,131.39726 42.3945578,132.787671 L43.5918367,134.424658 C43.7498902,134.599609 43.8868916,134.792725 44,135 Z" id="Path" fill="#23527C" fill-rule="nonzero"></path>
                        <path d="M49,124 C48.4823776,123.570916 48.0237228,123.09184 47.6330935,122.572235 C45.609576,120.155763 43.9398514,117.532806 42.6618705,114.76298 C42.3624331,114.199566 42.140304,113.607895 42,113 C42.3435427,113.539186 42.6463323,114.096971 42.9064748,114.669865 C43.4460432,115.706546 44.2302158,117.152935 45.1942446,118.642777 C46.1582734,120.132619 47.1294964,121.492099 47.8561151,122.441874 C48.2748811,122.940048 48.6569298,123.46045 49,124 L49,124 Z" id="Path" fill="#23527C" fill-rule="nonzero"></path>
                        <path d="M56.9953689,114 C56.6151468,113.661716 56.2820613,113.274309 56.0049702,112.848082 C55.277662,111.861265 54.6136647,110.829685 54.0169435,109.759502 C53.422675,108.688047 52.8986683,107.579409 52.4482097,106.440539 C52.2319342,105.983806 52.0810609,105.499118 52,105.000641 C52.1084378,104.957444 52.961482,107.102891 54.3494861,109.586714 C55.7374902,112.070537 57.0893484,113.906407 56.9953689,114 Z" id="Path" fill="#23527C" fill-rule="nonzero"></path>
                        <path d="M63,102 C62.9120473,102.103407 62.8143386,102.198233 62.7082067,102.283186 L61.8263425,103.055511 C61.0676798,103.699115 59.9458967,104.658085 58.5452888,105.810137 C55.7505572,108.107804 51.8405268,111.222848 47.4182371,114.537409 C42.9959473,117.851971 38.9043566,120.741754 35.908612,122.775543 C34.4107396,123.792438 33.191692,124.603379 32.3422492,125.156879 L31.3566363,125.800483 C31.2471278,125.882286 31.1272117,125.949372 31,126 C31.0978169,125.904791 31.2041663,125.818621 31.3177305,125.742558 L32.2644377,125.066774 L35.7724417,122.60177 C38.7292806,120.516492 42.7949341,117.600965 47.2172239,114.29284 C51.6395137,110.984714 55.5625127,107.895414 58.3961499,105.6428 L61.7485309,102.971842 L62.6628166,102.251006 C62.764897,102.154493 62.8780704,102.070244 63,102 L63,102 Z" id="Path" fill="#23527C" fill-rule="nonzero"></path>
                        <path d="M48,126 C47.3831079,126.39213 46.7400808,126.727904 46.0769231,127.004188 C44.8910256,127.590576 43.25,128.411518 41.4615385,129.379058 C39.6730769,130.346597 38.0769231,131.270157 36.9230769,131.951832 C36.3058438,132.355648 35.663019,132.706018 35,133 C35.5623662,132.517464 36.1583791,132.088453 36.7820513,131.717277 C37.9102564,130.984293 39.4935897,130.002094 41.2692308,129.034555 C43.0448718,128.067016 44.724359,127.282723 45.9358974,126.754974 C46.6026096,126.432646 47.2934603,126.179957 48,126 Z" id="Path" fill="#23527C" fill-rule="nonzero"></path>
                        <path d="M93,88.9779623 C92.7088261,88.8271712 92.429336,88.6505906 92.1643051,88.449974 C91.6324992,88.088719 90.8664456,87.567678 89.8977992,86.9702176 C88.7709343,86.2618597 87.5912261,85.6599159 86.37142,85.1708894 C84.9033988,84.5363813 83.322336,84.2797044 81.7497739,84.4205904 C80.1895889,84.6917214 78.7124537,85.3734542 77.4446789,86.4074934 C76.3889409,87.2398603 75.3998268,88.169525 74.4880916,89.1863786 C73.7030449,90.0478331 73.0889358,90.7703433 72.6647573,91.2705426 C72.4651343,91.5366569 72.2425109,91.7809479 72,92 C72.1720818,91.7003668 72.3691928,91.41895 72.588785,91.1593872 C72.9813084,90.6244518 73.5700935,89.8741528 74.3424781,88.9849095 C75.2417891,87.9312617 76.2295734,86.9729424 77.2927344,86.1226576 C78.590377,85.0368461 80.1129863,84.3207876 81.7244498,84.0384937 C83.3486131,83.8918459 84.9814731,84.1654916 86.4917094,84.8374232 C87.7184564,85.3499845 88.9007754,85.9824053 90.0244197,86.7270652 C90.986735,87.3592616 91.7337956,87.9150386 92.2466084,88.3110298 C92.5157766,88.5076214 92.7679616,88.7308656 93,88.9779623 L93,88.9779623 Z" id="Path" fill="#23527C" fill-rule="nonzero"></path>
                        <path d="M83,112 C82.8926201,111.655322 82.8074844,111.300531 82.745402,110.939002 C82.5895257,110.246765 82.4024741,109.243993 82.1894432,107.988909 C81.1170231,101.451916 80.767394,94.7630577 81.1502677,88.1081331 C81.2282059,86.8142329 81.3113399,85.8049908 81.3892781,85.0933457 C81.4142422,84.725076 81.461134,84.3596227 81.5295668,84 C81.5428552,84.3693781 81.530687,84.7394948 81.4931956,85.1062847 C81.4464327,85.8179298 81.394474,86.8465804 81.3425152,88.1210721 C81.2105851,91.4364507 81.2296672,94.7584747 81.3996698,98.0711645 C81.5786038,101.382903 81.9099522,104.679136 82.3920824,107.943623 C82.5739381,109.198706 82.7350103,110.207948 82.8545154,110.906654 C82.9290806,111.264977 82.9777692,111.630882 83,112 Z" id="Path" fill="#23527C" fill-rule="nonzero"></path>
                        <path d="M64.9994973,132 C64.7881374,131.960233 64.5820097,131.896713 64.3850838,131.810661 C63.8155095,131.616424 63.2575362,131.390072 62.7138788,131.132704 C60.8995488,130.298421 59.2234951,129.19454 57.7432729,127.858967 C56.2877483,126.50143 55.0451188,124.934703 54.0567914,123.210994 C53.7567787,122.691976 53.4840229,122.157852 53.2396213,121.610772 C53.1371217,121.416684 53.0567497,121.211824 53,121 C53.0491531,121 53.4608102,121.818434 54.2288272,123.101055 C56.2688296,126.475516 59.2419388,129.195667 62.7937526,130.937257 C64.1454625,131.578567 65.0240739,131.914492 64.9994973,132 Z" id="Path" fill="#23527C" fill-rule="nonzero"></path>
                        <path d="M70.9997144,126 C70.756649,125.939984 70.5217176,125.852707 70.2997287,125.739955 C69.8501965,125.554209 69.2272735,125.257016 68.4694908,124.854566 C64.5161113,122.741445 61.0987588,119.808293 58.4641903,116.266905 C58.0624644,115.7369 57.6894949,115.18718 57.3467819,114.619957 C57.2067695,114.42718 57.0903994,114.21941 57,114.000803 C57.0449532,113.969845 57.6421887,114.83666 58.6568469,116.149266 C61.3688528,119.578462 64.7394512,122.47292 68.5850847,124.675011 C70.0621188,125.504677 71.01898,125.950468 70.9997144,126 Z" id="Path" fill="#23527C" fill-rule="nonzero"></path>
                        <path d="M78,119 C77.7281351,118.914058 77.4650541,118.798867 77.2147625,118.65618 C76.7122104,118.426966 76.0086376,118.049438 75.1480173,117.550562 C72.9152287,116.235224 70.8288364,114.652048 68.928936,112.831461 C67.0434613,110.997704 65.3230085,108.977559 63.7903416,106.797753 C63.2061249,105.961798 62.7475461,105.280899 62.4460149,104.775281 C62.2701622,104.536042 62.120509,104.275908 62,104 C62.202402,104.204872 62.3854647,104.430686 62.5465253,104.674157 L63.9725167,106.61573 C65.5501937,108.729678 67.2787449,110.708684 69.1425206,112.534831 C71.0317812,114.332692 73.0811606,115.926875 75.2610915,117.294382 C76.1028661,117.813483 76.7875932,118.224719 77.2712996,118.494382 C77.5308618,118.633509 77.7752542,118.803084 78,119 Z" id="Path" fill="#23527C" fill-rule="nonzero"></path>
                        <path d="M73.1391799,92 C73.2131913,92 73.1391799,93.3625713 73.3746707,95.5389006 C73.4486821,96.0814058 73.5226935,96.6806849 73.6707164,97.311505 C73.8187392,97.942325 73.9734903,98.6046861 74.1551547,99.3112046 C74.610288,100.827529 75.2022738,102.304776 75.9247003,103.726945 C76.6668223,105.131261 77.5356982,106.473491 78.521828,107.738961 C78.9928097,108.313007 79.4301498,108.86182 79.86749,109.334935 C80.3048301,109.80805 80.7556269,110.255933 81.1727821,110.640733 C82.8346747,112.179934 84.0457706,112.943226 83.9986724,113 C83.6963487,112.851956 83.41016,112.676597 83.144177,112.476419 C82.8139111,112.264768 82.497139,112.035178 82.1954853,111.788825 C81.8388848,111.504956 81.4150013,111.202163 80.9978461,110.811054 C80.5806908,110.419946 80.1097091,110.009913 79.6521841,109.517873 C79.194659,109.025834 78.7169489,108.495945 78.2325106,107.921898 C76.1818792,105.383206 74.6823114,102.492036 73.8187392,99.4121358 C73.6370748,98.6993091 73.4554104,98.0243316 73.3544858,97.3808952 C73.2378434,96.7882558 73.1547446,96.1902427 73.1055383,95.5893662 C73.0492699,95.0948483 73.0200756,94.5979512 73.0180703,94.1006308 C72.9939766,93.7266851 72.9939766,93.3517168 73.0180703,92.9777711 C73.0281713,92.6491747 73.0686934,92.3220217 73.1391799,92 Z" id="Path" fill="#23527C" fill-rule="nonzero"></path>
                        <path d="M90,88 C89.8514118,88.3136798 89.6725111,88.6149079 89.465376,88.9001853 C89.274962,89.1848028 89.0479299,89.5620863 88.8135742,89.9526079 C88.5792184,90.3431295 88.2789502,90.8263172 88.0153,91.362457 C87.3565922,92.6036928 86.7794655,93.8789636 86.2869265,95.1816256 C85.697926,96.7804184 85.2353733,98.4150177 84.902763,100.073074 C84.5901361,101.734041 84.4065967,103.412758 84.3534918,105.096902 C84.3251017,106.473505 84.3862372,107.850425 84.5365822,109.220545 C84.5805239,109.809637 84.6830545,110.332539 84.7562907,110.79587 C84.8295269,111.2592 84.8954394,111.656341 84.9686756,111.980672 C85.0554583,112.315503 85.109374,112.656602 85.1297951,113 C85.0003347,112.676352 84.8975239,112.344497 84.8222033,112.007149 C84.7058796,111.619269 84.6129767,111.225961 84.5439058,110.828965 C84.4560224,110.365634 84.331521,109.836113 84.2656084,109.247021 C84.0735194,107.86845 83.9854325,106.479663 84.0019582,105.090283 C84.0371087,103.388779 84.2109046,101.691926 84.521935,100.013503 C84.8726901,98.3389164 85.3623123,96.690546 85.9866583,95.0823405 C86.4953853,93.7713294 87.1022052,92.4931158 87.8029151,91.2565528 C88.0885361,90.720413 88.4034516,90.2637014 88.6597782,89.8533227 C88.8846814,89.5025791 89.1291157,89.1623666 89.3921398,88.8339952 C89.5688957,88.5412842 89.7722129,88.2623293 90,88 Z" id="Path" fill="#23527C" fill-rule="nonzero"></path>
                        <path d="M103,94 C102.783815,94.2790836 102.546232,94.5397502 102.289551,94.779476 C102.048506,95.0152838 101.763058,95.3165939 101.445893,95.6768559 C101.128728,96.0371179 100.74813,96.4366812 100.373876,96.9148472 C99.4607173,98.0018288 98.6133367,99.1459212 97.836558,100.340611 C96.8911164,101.80784 96.0433883,103.339758 95.2992401,104.925764 C94.5814029,106.52239 93.9709999,108.168212 93.4723712,109.851528 C93.0751185,111.230441 92.7573962,112.632465 92.5208769,114.050218 C92.4066976,114.652838 92.3559513,115.209607 92.286175,115.687773 C92.2163988,116.165939 92.178339,116.591703 92.1529658,116.932314 C92.1390964,117.291566 92.09452,117.64885 92.0197566,118 C91.9934145,117.642438 91.9934145,117.283326 92.0197566,116.925764 C92.0197566,116.578603 92.0197566,116.159389 92.0958762,115.668122 C92.1719957,115.176856 92.1846823,114.620087 92.286175,114.010917 C92.4919158,112.577525 92.7885742,111.159628 93.1742363,109.766376 C93.6615278,108.060829 94.2700215,106.394734 94.9947619,104.781659 C95.7312257,103.178897 96.5792199,101.633364 97.5320799,100.157205 C98.3273579,98.9615862 99.1982871,97.8215474 100.139174,96.7445415 C100.526115,96.2729258 100.925743,95.8864629 101.255594,95.5393013 C101.585445,95.1921397 101.889923,94.8842795 102.143655,94.6746725 C102.408696,94.423426 102.695326,94.1976042 103,94 L103,94 Z" id="Path" fill="#23527C" fill-rule="nonzero"></path>
                        <path d="M115,100 C114.865435,100.333218 114.703038,100.655328 114.514412,100.963149 C114.18847,101.573143 113.689579,102.446399 113.064302,103.531547 C111.813747,105.676159 110.02439,108.610553 107.949002,111.788945 C105.873614,114.967337 103.898004,117.786153 102.427938,119.802345 C101.696231,120.80402 101.097561,121.613065 100.665188,122.165271 C100.467173,122.460395 100.244716,122.739551 100,123 C100.174669,122.684273 100.370194,122.379717 100.585366,122.088219 L102.261641,119.667504 C103.678492,117.619207 105.587583,114.781128 107.689579,111.609157 C109.791574,108.437186 111.580931,105.522055 112.884701,103.409548 L114.43459,100.90536 C114.596959,100.589085 114.78607,100.286272 115,100 L115,100 Z" id="Path" fill="#23527C" fill-rule="nonzero"></path>
                        <path d="M129,106 C129,106 128.967105,106.098414 128.875,106.282121 L128.460526,107.049754 C128.092105,107.70585 127.539474,108.670312 126.828947,109.831602 C125.414474,112.160744 123.348684,115.310005 120.855263,118.636413 C118.361842,121.962821 115.907895,124.829962 114.072368,126.837616 C113.151316,127.848004 112.394737,128.648442 111.855263,129.186441 L111.230263,129.803171 C111.162388,129.878457 111.084985,129.944621 111,130 C111,130 111.052632,129.908147 111.184211,129.750683 L111.756579,129.094587 L113.888158,126.680153 C115.677632,124.633133 118.085526,121.746309 120.578947,118.433024 C123.072368,115.119738 125.184211,111.99672 126.625,109.706944 L128.342105,106.984144 L128.815789,106.242756 C128.866849,106.154524 128.928729,106.072978 129,106 L129,106 Z" id="Path" fill="#23527C" fill-rule="nonzero"></path>
                        <path d="M139,114 C138.993416,114.103938 138.96967,114.205968 138.929778,114.301722 L138.674427,115.141295 C138.559519,115.50205 138.412692,115.948073 138.214795,116.453129 C138.016898,116.958185 137.819001,117.541951 137.576418,118.165072 C136.960503,119.638585 136.2723,121.079077 135.514457,122.481006 C133.661622,125.918019 131.401582,129.105995 128.785956,131.972124 C127.719612,133.142321 126.594536,134.254521 125.415321,135.304181 C124.917386,135.763323 124.438603,136.143755 124.030041,136.484832 C123.62148,136.825909 123.257604,137.107953 122.951183,137.330965 L122.255351,137.84258 C122.176071,137.904457 122.090446,137.957244 122,138 C122,138 122.063838,137.914731 122.210665,137.783547 L122.849042,137.226018 C123.136312,136.989888 123.48742,136.694725 123.889598,136.34053 C124.291776,135.986335 124.751408,135.592785 125.230192,135.127084 C126.219677,134.215359 127.343222,133.080623 128.536988,131.76223 C129.814511,130.319124 131.020447,128.810788 132.150207,127.242963 C133.262307,125.65923 134.293612,124.017226 135.239955,122.323586 C136.095381,120.755944 136.810364,119.312927 137.346602,118.066685 C137.640255,117.456682 137.857304,116.879475 138.061585,116.380978 C138.265866,115.882482 138.438228,115.449576 138.572287,115.069145 C138.706346,114.688713 138.802103,114.478819 138.885092,114.255808 C138.911957,114.165591 138.950612,114.079536 139,114 Z" id="Path" fill="#23527C" fill-rule="nonzero"></path>
                        <path d="M150,126 C149.934244,126.320875 149.834023,126.634308 149.700952,126.935252 C149.490258,127.536952 149.136837,128.387181 148.661078,129.427077 C146.140541,134.834223 142.497752,139.688368 137.956502,143.691302 C137.086543,144.449967 136.359311,145.038587 135.835976,145.42446 C135.574592,145.638537 135.294946,145.831063 135,146 C135.228141,145.760685 135.478374,145.541781 135.747621,145.345978 C136.24377,144.933944 136.943815,144.319163 137.786588,143.540876 C142.200176,139.470991 145.806797,134.6618 148.429995,129.348594 C148.932941,128.334859 149.320344,127.497711 149.571817,126.915631 C149.688586,126.599783 149.831783,126.293569 150,126 Z" id="Path" fill="#23527C" fill-rule="nonzero"></path>
                        <path d="M161,130.002172 C160.974199,130.235274 160.923099,130.464953 160.847583,130.68724 C160.729807,131.139385 160.521966,131.790199 160.244844,132.578027 C158.765177,136.706153 156.599294,140.561212 153.836412,143.984402 C153.302954,144.669469 152.85956,145.155867 152.533942,145.49155 C152.208324,145.827234 152.021267,146.019052 152.000483,145.9985 C151.979699,145.977948 152.630934,145.169569 153.635499,143.833687 C154.943843,142.08392 156.137893,140.253351 157.210365,138.353146 C158.263385,136.453672 159.189115,134.487865 159.981579,132.468416 C160.618958,130.933864 160.944576,129.947367 161,130.002172 Z" id="Path" fill="#23527C" fill-rule="nonzero"></path>
                        <path d="M76,109.000378 C75.9596416,109.095833 75.9083758,109.185995 75.8472873,109.268958 C75.7136638,109.46548 75.5482251,109.701306 75.3573342,109.989538 C74.9310114,110.644611 74.2883456,111.502757 73.4929672,112.609831 C71.8894843,114.791225 69.6178835,117.752156 66.9963161,120.929262 C64.3747488,124.106367 61.9058942,126.896979 60.0606162,128.875301 C59.1443403,129.864461 58.393503,130.650549 57.8653717,131.187709 L57.229069,131.803478 C57.1604568,131.878 57.0835728,131.94396 57,132 C57,132 57.0509042,131.90829 57.1781648,131.751072 L57.7508372,131.095999 L59.8633624,128.711532 C61.6513731,126.693907 64.0947756,123.883642 66.7163429,120.713088 C69.3379102,117.542533 71.6349632,114.601254 73.2829873,112.465715 L75.2300737,109.930582 L75.764568,109.242755 C75.9427328,109.072436 76,108.993827 76,109.000378 Z" id="Path" fill="#23527C" fill-rule="nonzero"></path>
                        <path d="M78.9987867,105 C79.0395214,105.108009 78.0483111,105.604848 76.9620533,106.440115 C75.8757954,107.275381 75.0814693,108.067444 75,107.995438 C75.4378552,107.236158 76.0407987,106.599142 76.7583799,106.137691 C77.4074259,105.571846 78.1762143,105.181451 78.9987867,105 L78.9987867,105 Z" id="Path" fill="#23527C" fill-rule="nonzero"></path>
                        <path d="M147,146 L146.800838,145.954597 L146.235477,145.79893 C145.74721,145.643263 145.00196,145.461651 144.076823,145.150316 C141.440742,144.272936 138.865254,143.219867 136.367344,141.998054 C132.679766,140.1659 129.130303,138.063072 125.747538,135.706502 C121.892798,133.066645 117.864596,129.927355 113.669355,126.580509 C109.474113,123.233663 105.465184,120.061943 101.68754,117.357224 C98.3632901,114.936347 94.8985413,112.718449 91.3118668,110.715421 C88.8908571,109.371087 86.3938389,108.171254 83.8336726,107.122102 C82.9278089,106.732933 82.2082576,106.473488 81.7264151,106.304848 L81.1803271,106.08432 C81.0582603,106.038917 80.9940147,106.006486 81,106 L81.1931762,106.051889 L81.7521134,106.239987 C82.2339558,106.415113 82.9663563,106.629155 83.8786446,106.998865 C86.4656826,108.001735 88.9851769,109.173889 91.4210844,110.507864 C95.0327412,112.486731 98.5194023,114.689757 101.861003,117.104265 C105.664346,119.796011 109.679699,122.941787 113.881365,126.308091 C118.083031,129.674396 122.104809,132.794227 125.921001,135.440571 C129.287416,137.800727 132.817129,139.914141 136.482986,141.764553 C138.957084,143.006425 141.506267,144.089596 144.11537,145.007621 C145.034083,145.351386 145.772908,145.558943 146.25475,145.734068 L146.813688,145.922166 C146.878349,145.941371 146.940804,145.967462 147,146 Z" id="Path" fill="#23527C" fill-rule="nonzero"></path>
                        <path d="M162,141 C162,141 160.016247,140.603845 156.506035,139.577737 C151.56055,138.080737 146.744133,136.180275 142.104503,133.895181 C135.247379,130.463423 128.660728,126.507641 122.402228,122.062476 C114.723038,116.65112 107.335721,110.8304 100.271788,104.625146 C95.4863061,100.481751 90.9262504,96.3773217 86.649588,92.5261722 L86.6946733,92.5261722 L83.8607404,91.3442005 L83.925148,91.3442005 C82.1280843,91.4129402 80.4052759,92.0849406 79.0301729,93.2535394 C77.6928883,94.3643845 76.4772603,95.6162536 75.4040269,96.9877906 C73.257108,99.6677924 71.2153882,102.220072 69.2788674,104.644629 C65.4144134,109.495909 62.0845422,113.82764 59.3794244,117.47097 C56.6743066,121.114301 54.5810607,124.06923 53.1769757,126.108456 L51.5667866,128.452916 L51.1481374,129.056891 C51.1030956,129.127136 51.0536141,129.194383 51,129.258215 C51.0389628,129.184424 51.0819677,129.112875 51.1288151,129.043902 L51.5217013,128.394467 C51.8695021,127.855436 52.3912034,127.050136 53.0868052,126.024029 C54.4651271,123.96532 56.5261692,120.990908 59.2184055,117.328095 C61.9106418,113.665281 65.2276314,109.314067 69.0663224,104.449799 L75.1721597,96.7734771 C76.253191,95.3763735 77.4844501,94.104376 78.843391,92.9807767 C80.2660063,91.7593589 82.0576591,91.0610051 83.925148,91 L83.9831148,91 L86.8170477,92.1819717 L86.8170477,92.1819717 L86.8170477,92.1819717 C91.1001509,96.0266268 95.6602066,100.131056 100.439248,104.267957 C107.511677,110.50071 114.902902,116.355805 122.582569,121.809196 C128.823103,126.255307 135.385285,130.223641 142.213996,133.680868 C146.835058,135.980682 151.628997,137.909002 156.55112,139.44785 C158.296565,139.973893 159.655565,140.370048 160.589474,140.603845 L161.645758,140.889596 C161.871185,140.95454 162,141 162,141 Z" id="Path" fill="#23527C" fill-rule="nonzero"></path>
                        <path d="M145,119 L144.851711,119 L144.413289,119 C144.032895,119 143.465526,119 142.743421,118.93529 C140.692883,118.777051 138.661658,118.426079 136.676447,117.886989 C133.731761,117.08434 130.877608,115.978395 128.159474,114.586781 C124.83327,112.887869 121.64873,110.922968 118.636711,108.711116 C115.413026,106.368616 112.498816,103.967876 109.8425,101.780679 C107.186184,99.5934828 104.813553,97.619829 102.750395,96.015022 C100.687237,94.4102149 99.0173684,93.1548417 97.8375,92.3200832 L96.4706579,91.3559048 L96.1160526,91.0970649 L96,91 C96,91 96.0515789,91 96.1353947,91.071181 L96.5093421,91.2976658 C96.8252632,91.5047377 97.3088158,91.7959325 97.9084211,92.2100763 C99.1205263,93.0189508 100.829079,94.241969 102.892237,95.8273631 C104.955395,97.4127571 107.360263,99.3669979 110.023026,101.541253 C112.685789,103.715507 115.612895,106.103305 118.810789,108.432863 C121.808125,110.636271 124.972702,112.600826 128.275526,114.308528 C130.973292,115.700553 133.802641,116.819098 136.721579,117.647562 C138.689792,118.202489 140.702594,118.583573 142.736974,118.786457 C143.452632,118.883522 144.026447,118.883522 144.400395,118.922348 L144.832368,118.954703 C144.890211,118.961182 144.946735,118.976456 145,119 L145,119 Z" id="Path" fill="#23527C" fill-rule="nonzero"></path>
                        <path d="M114.635095,101 L114.635095,101 C114.969253,100.473536 115.079905,99.833569 114.942186,99.2239124 C114.804466,98.6142559 114.429927,98.0860463 113.902734,97.7579829 L86.7857595,80.9338288 L81.8488615,46.6648495 C81.7095488,45.686952 80.8651178,44.9706931 79.8871802,45.0009222 L79.8871802,45.0009222 C79.3390362,45.0110812 78.8212637,45.2570733 78.464065,45.6770398 C78.1068663,46.0970064 77.9442265,46.6509903 78.017044,47.1996833 L82.7577739,83.2052217 L114.635095,101 Z" id="Path" fill="#263238" fill-rule="nonzero"></path>
                        <path d="M164.674039,47 C165.43334,47.7345656 176.017729,51.8104296 176.986492,60.4171981 C177.418508,64.2590412 167.344683,128.959319 167.344683,128.959319 L166.166457,129.30385 C159.212329,131.319605 151.726868,128.865782 147.347584,123.134799 L145.383875,120.482562 C143.786584,118.357771 141.865221,116.493515 139.68912,114.957068 L129,106.870346 L136.763195,99.7847135 L136.003894,91.9125106 C136.003894,91.9125106 132.580495,79.8474332 134.485293,73.8018933 C136.39009,67.7563535 145.534426,55.073721 145.534426,55.073721 L150.070593,49.9967676 L164.674039,47 Z" id="Path" fill="#23527C" fill-rule="nonzero"></path>
                        <path d="M166,122.185025 C165.862818,122.303399 165.705398,122.404649 165.532717,122.485573 C165.346193,122.595473 165.15166,122.695845 164.950213,122.786121 C164.684552,122.912073 164.411062,123.026474 164.130868,123.128852 C163.405476,123.399345 162.648312,123.607832 161.871266,123.75104 C159.956302,124.106324 157.966175,124.08102 156.065435,123.677221 C155.294634,123.511318 154.546165,123.281664 153.831438,122.99176 C153.555209,122.881935 153.286007,122.760502 153.024895,122.627938 C152.82661,122.533107 152.636281,122.427414 152.455193,122.311571 C152.147939,122.121751 151.98791,122.016296 152.000713,122.000477 C152.013515,121.984659 152.711239,122.364299 153.921054,122.812485 C154.634067,123.075157 155.375631,123.281715 156.135847,123.429401 C157.994418,123.798154 159.929053,123.823364 161.800854,123.50322 C162.563947,123.37351 163.31155,123.188235 164.034851,122.949578 C165.276671,122.533028 165.961593,122.153388 166,122.185025 Z" id="Path" fill="#263238" fill-rule="nonzero"></path>
                        <path d="M166,117 C165.68064,117.381292 165.307592,117.704813 164.894853,117.958427 C162.952887,119.295523 160.700517,120.000579 158.402941,119.990581 C157.929561,120.024662 157.454403,119.966086 157,119.817632 C158.580892,119.760018 160.151591,119.518437 161.685294,119.09701 C163.185532,118.560328 164.631318,117.857654 166,117 Z" id="Path" fill="#263238" fill-rule="nonzero"></path>
                        <path d="M168.407902,50.277598 C168.407902,50.277598 157.745199,47.7792157 155.084439,57.7727449 C153.156134,64.6475593 150.79004,71.3978148 148,77.9840171 L172.399043,83 C172.399043,83 180.368217,56.5171477 168.407902,50.277598 Z" id="Path" fill="#23527C" fill-rule="nonzero"></path>
                        <path d="M172,84 C171.834079,83.9919576 171.669365,83.9678697 171.50824,83.9280846 L170.09277,83.666574 L164.862839,82.6401448 L147.192717,79.0443738 L147,79.0051472 L147.073099,78.8220898 C147.57815,77.5145367 148.076555,76.2069837 148.561669,74.7948263 C149.89075,70.9833091 151.000532,67.309085 151.88437,63.9290602 C152.097023,63.0856885 152.269803,62.2488545 152.502392,61.4512472 C152.734981,60.6536398 152.994152,59.8821835 153.273259,59.1564915 C153.552366,58.4307996 153.838118,57.7247209 154.12387,57.0644066 C154.376006,56.4113257 154.694378,55.7848958 155.074163,55.1946057 C155.770366,54.2056621 156.646857,53.352235 157.659224,52.677566 C158.413509,52.1664664 159.22797,51.7471725 160.084795,51.4288528 C160.625353,51.2153707 161.193419,51.0767544 161.772727,51.0169736 C161.973648,50.9943421 162.176538,50.9943421 162.377459,51.0169736 C162.377459,51.0169736 162.164806,51.0169736 161.779373,51.088889 C161.215306,51.1816752 160.664352,51.3396759 160.137959,51.5596081 C159.300816,51.9043689 158.506965,52.343129 157.772196,52.8671612 C156.797612,53.5477293 155.953802,54.3933676 155.28017,55.3645876 C154.914976,55.9454444 154.609973,56.5609007 154.36975,57.2016997 C154.090643,57.8554762 153.804891,58.5615549 153.539075,59.2872468 C153.273259,60.0129388 153.020734,60.7778573 152.79479,61.5689269 C152.568846,62.3599966 152.402711,63.1902928 152.190058,64.0402023 C151.352738,67.4398403 150.23631,71.1271399 148.913876,74.9451949 C148.428761,76.337739 147.923711,77.6975942 147.41866,78.9855339 L147.292398,78.7567122 L164.909357,82.4570874 L170.119351,83.5881208 L171.521531,83.9084713 C171.682904,83.9285299 171.842745,83.9591068 172,84 L172,84 Z" id="Path" fill="#263238" fill-rule="nonzero"></path>
                        <path d="M145,90 C144.601684,90.0002279 144.207709,89.9153137 143.843292,89.7506921 C142.018015,89.0922663 140.473195,87.8045021 139.473506,86.1080331 C139.23996,85.7776811 139.078479,85.3998071 139,85 C139.727003,86.1212129 140.590802,87.1428544 141.570462,88.0401659 C142.625705,88.8430716 143.778576,89.5018878 145,90 L145,90 Z" id="Path" fill="#263238" fill-rule="nonzero"></path>
                        <path d="M173.188693,80 C173.209617,79.6947853 173.265845,79.3925023 173.35642,79.0982918 C173.503181,78.525063 173.677896,77.6877625 173.873578,76.6507981 C174.896594,71.2497102 174.851609,65.7226571 173.740794,60.3363204 C173.531135,59.3057967 173.335454,58.474937 173.188693,57.9017082 C173.090861,57.6082516 173.027598,57.3059398 173,57 C173.136767,57.2798083 173.244409,57.5709486 173.321477,57.8695043 C173.517158,58.4298516 173.747782,59.2607113 174.020339,60.2912349 C175.2802,65.6936657 175.325391,71.2767319 174.153122,76.6958835 C173.929487,77.7328479 173.705851,78.5637076 173.524147,79.1304957 C173.441702,79.4292551 173.329404,79.7203335 173.188693,80 L173.188693,80 Z" id="Path" fill="#263238" fill-rule="nonzero"></path>
                        <path d="M140.609906,44 C141.569877,46.6143868 139.891605,49.4068826 138.092498,51.5887188 C136.293391,53.770555 134.178768,56.0414457 134.145203,58.8212194 C134.145203,60.3160635 134.722529,61.7409361 135.132027,63.1848918 C135.541525,64.6288475 135.749631,66.2381902 134.997765,67.5485641 C134.125064,69.0561302 132.191695,69.8130938 131.386124,71.3651871 C130.859851,72.5246972 130.872031,73.8403954 131.41969,74.990979 C131.97139,76.1231999 132.687695,77.1766388 133.547738,78.1206099 C133.957237,78.6167709 134.561414,79.1638202 135.179018,78.9539059 C135.541314,78.7761261 135.817687,78.4732571 135.951023,78.1078878 C139.338895,71.6365914 142.538799,65.0804812 145.550738,58.4395571 C146.273824,57.0371485 146.754343,55.5337353 146.973912,53.9868303 C147.249149,50.7490617 145.248649,47.6257919 145.564164,44.3880233" id="Path" fill="#263238" fill-rule="nonzero"></path>
                        <path d="M139.444659,12 C136.61697,13.7393278 135.489896,17.3990287 136.030092,19.5586402 C136.296855,20.6513778 136.810374,21.7441154 136.583625,22.8433188 C136.396891,23.7938065 135.689969,24.556783 135.163112,25.3779527 C133.366286,28.2155188 133.674887,31.8550855 135.925559,34.3700534 C138.17623,36.8850212 141.849124,37.6944976 145,36.3699872" id="Path" fill="#263238" fill-rule="nonzero"></path>
                        <path d="M137.583197,26.9119733 C130.963082,12.342579 146.705099,5.03220886 155.29457,7.45830184 C163.370853,9.7367754 166.841282,13.7545908 168.12425,19.158745 C169.407218,24.5628992 169.407218,30.4163298 167.271076,35.5637546 C166.225457,38.0989576 164.345909,40.6983429 161.619602,41" id="Path" fill="#263238" fill-rule="nonzero"></path>
                        <path d="M145.644137,57 C145.530455,49.9287453 145.511508,45.7212183 145.511508,45.7603581 C145.511508,45.7994979 139.625309,44.7492469 138.406385,36.8234403 C137.774819,32.8768452 137.989551,26.386164 138.31165,21.1218627 C138.602171,16.3663787 141.658953,10.5280273 146.244125,11.0303212 L160.580683,14.7681708 C161.974758,14.9232398 163.023986,16.1512689 162.999583,17.599282 L162.999583,17.599282 L162.064865,48.2196413" id="Path" fill="#FFBE9D" fill-rule="nonzero"></path>
                        <path d="M140.000363,26.9326923 C139.985781,27.5000258 140.412703,27.9740184 140.95801,27.9959275 C141.214285,28.0200953 141.46913,27.9359851 141.665107,27.7625536 C141.861084,27.5891221 141.981702,27.3409638 141.999776,27.0740083 C142.011118,26.5093127 141.590802,26.0365062 141.048599,26.0040437 C140.790607,25.9798826 140.53412,26.0647049 140.336931,26.2393975 C140.139743,26.4140901 140.018442,26.6639558 140.000363,26.9326923 Z" id="Path" fill="#263238" fill-rule="nonzero"></path>
                        <path d="M150.00037,26.9326788 C149.985705,27.4974984 150.408821,27.9704349 150.951599,27.9959121 C151.208562,28.0201077 151.464129,27.9361909 151.66114,27.762931 C151.85815,27.5896711 151.980165,27.341525 151.999893,27.0739946 C152.007716,26.5081743 151.585453,26.0364124 151.042193,26.0040319 C150.784854,25.9798872 150.529053,26.0649009 150.332873,26.239769 C150.136693,26.414637 150.016783,26.6645208 150.00037,26.9326788 L150.00037,26.9326788 Z" id="Path" fill="#263238" fill-rule="nonzero"></path>
                        <path d="M139.013794,24.8797768 C139.135959,25.0002826 139.913954,24.5239977 140.994146,24.5584279 C142.074338,24.5928582 142.839474,25.0978349 142.961639,24.9830674 C143.083803,24.8683 142.903771,24.7191023 142.569426,24.4838291 C142.113113,24.1811359 141.562568,24.0126733 140.994146,24.0018059 C140.434469,23.98218 139.882446,24.1229422 139.418866,24.4034919 C139.078091,24.62155 138.955927,24.8281314 139.013794,24.8797768 Z" id="Path" fill="#263238" fill-rule="nonzero"></path>
                        <path d="M150.017365,24.9807594 C150.140538,25.1055692 150.905512,24.582557 151.962213,24.5766137 C153.018914,24.5706703 153.848716,25.0758526 153.965407,24.9510428 C154.082098,24.8262331 153.894096,24.6776501 153.544023,24.4458606 C153.072479,24.1507893 152.513656,23.9952274 151.942765,24.0001116 C151.375561,23.9992464 150.823152,24.1659747 150.367437,24.4755772 C150.069227,24.71331 149.952536,24.9272696 150.017365,24.9807594 Z" id="Path" fill="#263238" fill-rule="nonzero"></path>
                        <path d="M146.534145,33.9447516 C146.007229,33.7434804 145.460839,33.6239477 144.908406,33.5890921 C144.658292,33.5890921 144.414134,33.4966206 144.372448,33.2903381 C144.352014,32.9761428 144.410041,32.6617656 144.539191,32.386963 C144.783349,31.675644 145.033463,30.8789667 145.295487,30.068063 C146.343582,26.7604296 147.082013,24.043191 146.992687,24.0005118 C146.903361,23.9578327 145.938636,26.589713 144.890541,29.8902332 C144.640427,30.7082501 144.396268,31.4835878 144.169975,32.2233596 C144.008678,32.5902899 143.96021,33.013164 144.033008,33.4183755 C144.108491,33.6376911 144.264534,33.803079 144.455819,33.8665065 C144.597592,33.9122751 144.743686,33.93618 144.890541,33.9376384 C145.436209,34.0183356 145.988002,34.0207237 146.534145,33.9447516 Z" id="Path" fill="#263238" fill-rule="nonzero"></path>
                        <path d="M146,45.9222956 C149.867512,45.9824253 153.675758,44.9707144 157,43 C157,43 154.222973,48.6964564 146,47.9288488 L146,45.9222956 Z" id="Path" fill="#EB996E" fill-rule="nonzero"></path>
                        <path d="M147.101396,35.6159356 C147.476332,35.1736386 148.071221,34.9446781 148.672061,35.011419 C149.104377,35.0441286 149.503897,35.2389254 149.779061,35.551166 C150.043208,35.8612419 150.073229,36.2913485 149.854407,36.6306599 C149.537909,36.9680553 149.030526,37.0883307 148.579328,36.9329182 C148.120272,36.7790925 147.697235,36.5445476 147.333229,36.2420421 C147.224868,36.1672845 147.130817,36.076048 147.05503,35.9721686 C146.981657,35.8691198 146.981657,35.7351769 147.05503,35.632128" id="Path" fill="#EB996E" fill-rule="nonzero"></path>
                        <path d="M149.807936,34.0001016 C149.608648,34.0001016 149.608648,35.1201362 148.498331,35.9228276 C147.388015,36.7255191 146.007236,36.6072932 146.000119,36.7628536 C145.993001,36.9184139 146.306168,36.9868605 146.889796,36.9993053 C147.647231,37.0140527 148.386123,36.7935824 148.975198,36.3770639 C149.539171,35.9718156 149.90353,35.3926491 149.992988,34.7592361 C150.035693,34.2738878 149.871992,33.9938791 149.807936,34.0001016 Z" id="Path" fill="#263238" fill-rule="nonzero"></path>
                        <path d="M149.005478,23.1117286 C149.116364,23.5206973 150.205655,23.3251036 151.490627,23.5384785 C152.7756,23.7518535 153.812709,24.2319472 153.9823,23.8674316 C154.060572,23.6896192 153.877936,23.3073223 153.460483,22.9161349 C152.328732,21.9419538 150.930981,21.7320896 149.670793,22.3471349 C149.201159,22.604963 148.959819,22.9250255 149.005478,23.1117286 Z" id="Path" fill="#263238" fill-rule="nonzero"></path>
                        <path d="M139.030057,21.8196948 C139.238461,22.2253815 140.037345,21.8196948 141.002952,21.8196948 C141.96856,21.8196948 142.788284,22.0972699 142.975848,21.6702313 C143.05921,21.456712 142.927221,21.0510253 142.572933,20.6666905 C142.095957,20.1945344 141.53493,19.9631231 140.968218,20.0047807 C140.401005,20.0215065 139.850714,20.304647 139.391291,20.8161541 C139.050897,21.2004888 138.939748,21.6275274 139.030057,21.8196948 Z" id="Path" fill="#263238" fill-rule="nonzero"></path>
                        <path d="M161.468355,28.3826081 C161.592311,28.3311673 165.951451,26.530737 165.999656,31.2118558 C166.047862,35.8929746 161.006961,34.9734691 161.000074,34.8384369 C160.993188,34.7034046 161.468355,28.3826081 161.468355,28.3826081 Z" id="Path" fill="#FFBE9D" fill-rule="nonzero"></path>
                        <path d="M162.002909,32.6729935 C162.002909,32.6729935 162.084289,32.7297375 162.222011,32.7864815 C162.409998,32.867076 162.622469,32.867076 162.810456,32.7864815 C163.408017,32.399206 163.750564,31.7164436 163.705644,31.0021968 C163.711107,30.6087657 163.629862,30.2190115 163.467762,29.8610112 C163.3841,29.5543617 163.146225,29.314783 162.841756,29.2305219 C162.654465,29.1792553 162.457978,29.2728537 162.378512,29.4511932 C162.315911,29.5835959 162.378512,29.6718644 162.322171,29.6781693 C162.265831,29.6844742 162.222011,29.6025106 162.259571,29.4133638 C162.285664,29.3002826 162.347104,29.1986217 162.434852,29.1233388 C162.560888,29.0295818 162.717251,28.9868365 162.873056,29.0035458 C163.254914,29.0773935 163.571987,29.3443082 163.711904,29.7096938 C163.905461,30.1012027 164.004145,30.5333356 163.999867,30.9706724 C163.999867,31.8974916 163.517842,32.7675669 162.860536,32.9630185 C162.613963,33.0387082 162.346573,32.9969195 162.13437,32.8495305 C162.015429,32.7801766 161.990388,32.6792984 162.002909,32.6729935 Z" id="Path" fill="#EB996E" fill-rule="nonzero"></path>
                        <path d="M145.052561,8 C142.434796,9.38950879 141.309158,14.8681435 142.434796,17.6736279 C143.560435,20.4791123 146.485786,21.8487709 149.398049,22.4972084 C152.242429,23.1947628 155.214097,23.162921 158.043215,22.4045745 C158.246092,24.389587 159.404453,26.3745996 161.282699,26.8840861 C163.76303,27.545757 166.262995,25.2696093 166.81927,22.7287932 C167.375545,20.1879771 166.544405,17.5677605 165.726353,15.106345" id="Path" fill="#263238" fill-rule="nonzero"></path>
                        <path d="M166,26.6358529 C166,26.6358529 165.87519,26.779915 165.611701,26.9994382 C165.23897,27.3075462 164.850135,27.596068 164.446804,27.8638108 C163.845621,28.2753544 163.18369,28.5923832 162.484507,28.8036445 C161.611746,29.0767097 160.673337,29.0646836 159.808018,28.769344 C158.955583,28.4287755 158.241171,27.8184605 157.776382,27.0337387 C157.410161,26.3997573 157.174496,25.7002872 157.082991,24.9757088 C157.012009,24.4966228 156.986474,24.0120188 157.006717,23.5282277 C157.001434,23.3500858 157.022457,23.1721346 157.069123,23 C157.124594,23 157.069123,23.7614711 157.291008,24.9345482 C157.417738,25.6196167 157.671642,26.2755319 158.03987,26.8690963 C158.481833,27.5927088 159.148205,28.1557423 159.939762,28.4743597 C160.747673,28.7519419 161.623357,28.771141 162.442904,28.5292405 C163.122902,28.3342226 163.771799,28.0455581 164.370531,27.671728 C165.369014,27.054319 165.972264,26.6015524 166,26.6358529 Z" id="Path" fill="#263238" fill-rule="nonzero"></path>
                        <path d="M176.660534,48.9453148 C176.18084,47.763812 175.539899,46.6580895 174.756895,45.6612474 L174.382512,45.134496 C176.438443,43.5867573 177.276044,41.0700562 176.920698,37.8705291 C176.692261,35.9651197 175.962533,34.6775052 172.999201,30.9382205 C170.588458,27.7868487 169.118585,23.9881296 168.766777,20 L166.69181,26.0543896 L167.510375,32.9997044 L165.549627,37.1421815 L164.337643,37.6559267 L162.434004,34.475909 C161.164911,38.0461129 159.895818,39.1646468 157.294178,40.9790127 C154.692538,42.7933787 152.084552,43.9249187 149.958822,47.7812592 C149.368694,48.8477683 145.383742,63.3561927 146.081743,64 C146.081743,64 153.493245,55.7540644 155.936249,53.4454626 C158.836126,50.7076559 161.367966,49.6151345 164.908735,49.9207804 C167.408848,50.3759976 168.988868,50.3499852 170.759252,52.2228791 C171.596854,53.1073012 172.409073,54.1738102 173.589329,54.407922 C174.861527,54.5675317 176.087412,53.8616639 176.616116,52.6650902 C177.111242,51.4801718 177.127217,50.142296 176.660534,48.9453148 L176.660534,48.9453148 Z" id="Path" fill="#263238" fill-rule="nonzero"></path>
                        <path d="M174,46 C174,46 173.918904,45.8295265 173.713046,45.5390901 C173.400818,45.1191362 173.008358,44.7670029 172.558994,44.5036212 C171.851012,44.0936573 171.099818,43.765389 170.319509,43.5249768 C169.831325,43.3598978 169.352363,43.1680955 168.884741,42.9504178 C168.350019,42.7148409 167.861821,42.383286 167.443735,41.9717734 C166.987544,41.5083467 166.660439,40.9311428 166.495541,40.2986072 C166.321301,39.6168129 166.272663,38.9083608 166.352064,38.2087279 C166.470588,36.7502321 167.100639,35.3169916 167.599688,33.7890436 C167.862023,33.0102882 168.017351,32.1987309 168.061309,31.3771588 C168.092719,30.5227718 167.905788,29.6746355 167.518593,28.9147632 C167.31594,28.5313445 167.040328,28.192304 166.707637,27.9171773 C166.361156,27.6467402 165.961149,27.4550766 165.53487,27.3552461 C165.110678,27.2479109 164.661533,27.1847725 164.212389,27.0837512 C163.747813,27.0013873 163.305658,26.8206573 162.91486,26.553389 C162.543375,26.2567525 162.25162,25.8702628 162.066475,25.4295265 C161.866855,25.0064995 161.71714,24.5708449 161.536235,24.1667595 C161.181181,23.3585424 160.571263,22.6923687 159.802037,22.2726091 C159.055555,21.8685887 158.240986,21.609474 157.400361,21.5086351 C156.590498,21.4196409 155.775333,21.3900992 154.961256,21.4202414 C154.162776,21.4202414 153.383011,21.4581244 152.62196,21.4202414 C150.543424,21.306255 148.564382,20.4827738 147.007652,19.0841226 C146.187351,18.3485767 145.510297,17.4641487 145.011453,16.4765088 C144.633019,15.7327885 144.356016,14.9405447 144.188021,14.1214485 C144.079993,13.6041606 144.019433,13.0778739 144.007116,12.5493036 C143.997628,12.3663283 143.997628,12.1829753 144.007116,12 C144.009634,12.0462664 144.009634,12.092638 144.007116,12.1389044 C144.007116,12.2336119 144.007116,12.3725162 144.007116,12.5493036 C144.032977,13.0743864 144.103944,13.5961945 144.219212,14.1088208 C144.394712,14.9174396 144.675819,15.6988039 145.05512,16.432312 C145.558108,17.4062523 146.234915,18.277514 147.051319,19.0020427 C148.042293,19.8724497 149.205731,20.5182769 150.463571,20.8961931 C151.163457,21.1068902 151.886241,21.2298765 152.615722,21.2623955 C153.370535,21.3065924 154.1503,21.2623955 154.948779,21.2623955 C155.770987,21.2241893 156.594891,21.2516342 157.412837,21.3444754 C158.273891,21.4446639 159.108112,21.7103973 159.870657,22.1273909 C160.260066,22.3469858 160.615311,22.6235673 160.924899,22.9481894 C161.234364,23.2886687 161.485282,23.6792184 161.667235,24.1036212 C161.854379,24.5203343 162.004094,24.9559889 162.197476,25.3663881 C162.370975,25.7824721 162.645657,26.1473673 162.995955,26.4271123 C163.370632,26.6852279 163.796386,26.8575963 164.243579,26.9322191 C164.686486,27.0332405 165.135631,27.090065 165.578537,27.2100279 C166.032536,27.3124062 166.45857,27.5150724 166.826161,27.8035283 C167.174856,28.0899609 167.463326,28.4441909 167.674546,28.845311 C168.068322,29.6258433 168.259381,30.4949586 168.229738,31.3708449 C168.184895,32.2052084 168.027483,33.0294401 167.761879,33.8206128 C167.275306,35.3675023 166.645256,36.7881151 166.514255,38.2402971 C166.433908,38.9245607 166.478311,39.6179388 166.645256,40.2859796 C166.802684,40.9003178 167.116746,41.4620413 167.556021,41.9149489 C167.965948,42.3157115 168.440672,42.6424418 168.959598,42.8809656 C169.423701,43.0969173 169.898419,43.2886878 170.38189,43.4555246 C171.168567,43.7085918 171.924116,44.0517623 172.633852,44.4783658 C173.081261,44.7529136 173.469496,45.1157992 173.775428,45.5454039 C173.865198,45.6889072 173.940436,45.8412103 174,46 Z" id="Path" fill="#455A64" fill-rule="nonzero"></path>
                        <path d="M172.538175,43 C172.538175,43 172.538175,42.9687026 172.639235,42.9248862 C172.740295,42.8810698 172.809774,42.818475 172.936099,42.7183232 C173.30932,42.4388561 173.633665,42.1005091 173.896169,41.7168058 C174.314563,41.1117631 174.602678,40.4277789 174.742546,39.7075114 C174.935544,38.754529 174.911809,37.7708997 174.673067,36.8281487 C174.37282,35.6889081 173.881753,34.6076894 173.22033,33.6295524 C172.457278,32.5054041 171.630633,31.4249584 170.74436,30.3933991 C169.751511,29.2539987 168.879496,28.0164609 168.142065,26.7003035 C167.384116,25.310698 167.093568,23.6894917 166.461943,22.168437 C166.166661,21.4143769 165.724548,20.7252638 165.160796,20.1403642 C164.60842,19.5895688 163.968215,19.1327638 163.265921,18.7883156 C161.886522,18.1816084 160.431396,17.7605724 158.93929,17.5364188 C157.588009,17.3030799 156.254308,16.9789251 154.947421,16.5661988 C153.806697,16.2017945 152.707914,15.7192342 151.669287,15.1265175 C150.157717,14.2748446 148.861701,13.0932257 147.879538,11.6712822 C147.614436,11.284061 147.382051,10.8758074 147.18475,10.4506829 C147.115272,10.3067147 147.071058,10.194044 147.039477,10.1189302 C147.007895,10.0438164 146.995263,10 147.001579,10 L147.058425,10.1126707 C147.096323,10.1877845 147.140537,10.2941958 147.216332,10.4381639 C147.421591,10.8549627 147.660269,11.2547663 147.930068,11.6337253 C148.923546,13.0293614 150.218117,14.1882803 151.719817,15.0263657 C152.755662,15.6092735 153.850097,16.0833923 154.985318,16.4410091 C156.289644,16.8428478 157.618831,17.1606584 158.964555,17.3924507 C160.46941,17.6141448 161.937385,18.0352107 163.329083,18.6443475 C164.059781,18.9897123 164.726111,19.455338 165.299753,20.021434 C165.877608,20.621741 166.332369,21.3275134 166.638798,22.0995827 C167.270423,23.6456753 167.567287,25.2293247 168.306288,26.6251897 C169.039193,27.9322572 169.902523,29.1631889 170.883318,30.2995068 C171.770417,31.3354032 172.595068,32.4222691 173.352971,33.5544385 C174.018267,34.5471051 174.511416,35.6430158 174.812025,36.7968513 C175.046737,37.7557605 175.061844,38.7545804 174.856238,39.7200303 C174.704574,40.4488832 174.403609,41.1391427 173.971964,41.7481032 C173.700245,42.1309862 173.364935,42.4653992 172.980312,42.7371017 C172.838941,42.8342956 172.69124,42.9221199 172.538175,43 L172.538175,43 Z" id="Path" fill="#455A64" fill-rule="nonzero"></path>
                        <path d="M151.010813,52 C151.001019,51.916117 151.001019,51.8313913 151.010813,51.7475083 C150.996396,51.5018695 150.996396,51.2556056 151.010813,51.0099668 C151.055251,50.0974618 151.254343,49.1989292 151.599717,48.3521595 C152.109369,47.1148748 152.854658,45.9868406 153.794725,45.0299003 C154.960613,43.865606 156.301649,42.888275 157.769829,42.1328904 C159.315703,41.3089701 160.90173,40.8039867 162.226765,40.0531561 C162.857173,39.7290091 163.449658,39.3368272 163.993478,38.8837209 C164.462638,38.4825071 164.866681,38.0118605 165.191363,37.4883721 C165.681134,36.7367665 165.937159,35.8586063 165.927494,34.9634551 C165.9032,34.6376918 165.847171,34.3150323 165.760191,34 C165.801882,34.0752955 165.833383,34.1557239 165.853881,34.2392027 C165.929162,34.4720405 165.976337,34.7129289 165.994415,34.9568106 C166.039912,35.8678662 165.806613,36.7712605 165.325205,37.5481728 C165.0005,38.0872166 164.591654,38.5716527 164.113936,38.9833887 C163.567677,39.4540408 162.968036,39.8598791 162.327146,40.192691 C160.988727,40.923588 159.409393,41.461794 157.876903,42.2857143 C156.420999,43.0281803 155.09104,43.9922159 153.935259,45.1428571 C152.999473,46.0880006 152.254415,47.2021525 151.740251,48.4252492 C151.376832,49.2471885 151.150798,50.1224551 151.071042,51.0166113 C151.071042,51.3289037 151.071042,51.5747508 151.071042,51.7475083 C151.071042,51.9202658 151.010813,52 151.010813,52 Z" id="Path" fill="#455A64" fill-rule="nonzero"></path>
                        <path d="M166,15 C166,15 165.9227,14.7244094 165.723009,14.2559055 C165.422022,13.6093645 165.001227,13.0350588 164.486212,12.5679134 C163.715961,11.8825299 162.820989,11.3757607 161.858019,11.0797244 C160.668817,10.7429472 159.452265,10.5283909 158.224928,10.4389764 C155.980299,10.2480915 153.763115,9.78582604 151.615794,9.06102362 C150.791263,8.78543307 150.140656,8.52362205 149.683299,8.3238189 C149.457841,8.23425197 149.283917,8.1515748 149.167967,8.09645669 C149.052017,8.04133858 148.994042,8.00688976 149.000484,8 C149.063135,8.01104839 149.123914,8.03194361 149.18085,8.06200787 L149.702624,8.26181102 C150.153539,8.44094488 150.810588,8.68208661 151.635119,8.9507874 C153.785994,9.62830874 155.996417,10.066977 158.231369,10.2598425 C159.469562,10.3571926 160.695399,10.5880223 161.890227,10.9488189 C162.871146,11.2543704 163.778688,11.7831881 164.550629,12.4990157 C165.070798,12.9805247 165.486313,13.5777882 165.768101,14.2490157 C165.841561,14.4321589 165.901858,14.6210266 165.948467,14.8139764 C165.972959,14.8733928 165.990276,14.9359036 166,15 Z" id="Path" fill="#455A64" fill-rule="nonzero"></path>
                        <path d="M157.53224,8.39049456 C156.527693,6.64628502 157.029967,4.24464265 158.329598,2.73523054 C159.714593,1.29844524 161.508712,0.396595831 163.42767,0.172584215 C164.748947,-0.120294459 166.118903,-0.0393576002 167.401906,0.407381654 C168.703094,0.873368136 169.677124,2.03911339 169.963499,3.47316535 C170.189522,5.04295394 169.335658,6.57249154 168.236935,7.67268525 C167.886686,7.94010649 167.646143,8.34125113 167.565145,8.79300446 C167.565145,9.27601633 167.916736,9.66510923 168.192987,10.0340766 C168.799231,10.7425211 169.131317,11.6703651 169.122192,12.6302654 C169.094285,13.6005622 168.543675,14.4660576 167.709549,14.8507784 C166.811736,15.2130373 165.826025,14.8507784 164.928211,14.454977 L159.359258,12.1002941" id="Path" fill="#263238" fill-rule="nonzero"></path>
                        <path d="M167,12.9966381 C166.923022,13.0862517 165.152531,11.3686592 162.661248,9.71827681 C160.169964,8.06789446 157.9586,7.1120169 158.000588,7 C158.517766,7.10342676 159.019266,7.28181611 159.49116,7.53021333 C161.827022,8.57826443 163.991005,10.0177706 165.901316,11.7943234 C166.318332,12.138412 166.68815,12.5431118 167,12.9966381 L167,12.9966381 Z" id="Path" fill="#23527C" fill-rule="nonzero"></path>
                        <path d="M152.070219,80 L145.732072,95.1607353 L118.029382,89.9068886 C118.029382,89.9068886 106.168825,80.8053342 105.812749,80.5049317 L102.400896,80.9715142 L96.8072709,80.8245088 L91.8416335,83.4706068 L91,83.6176122 L114.106076,97.7493095 L140.947709,112.833346 C144.534042,115.201715 149.076959,115.659073 153.073705,114.054131 L153.073705,114.054131 C156.456404,112.685677 159.098254,109.973099 160.350598,106.582419 L169,83.4066914 L152.070219,80 Z" id="Path" fill="#FFBE9D" fill-rule="nonzero"></path>
                        <path d="M92,82.990099 C92.4708338,82.7123971 92.9594888,82.516518 93.4572864,82.4059406 C94.3680905,82.1089109 95.6243719,81.7326733 97.0188442,81.3564356 L98.3253769,81 L98.3756281,81 L98.4133166,81 C99.4560302,81.5247525 100.360553,81.990099 101.001256,82.3465347 C101.351397,82.4921171 101.687379,82.7119459 102,83 C101.638923,82.9486546 101.282757,82.8323876 100.938442,82.6534653 C100.310302,82.3762376 99.3680905,81.970297 98.3190955,81.4752475 L98.3756281,81.4752475 L97.0753769,81.8415842 C95.6809045,82.2277228 94.4183417,82.5445545 93.4949749,82.7425743 C93.0039893,82.9119593 92.5025985,82.9949752 92,82.990099 L92,82.990099 Z" id="Path" fill="#EB996E" fill-rule="nonzero"></path>
                        <path d="M93,84.2993229 C94.5467493,84.0678185 96.1050878,83.970391 97.6632124,84.0077782 L98.7823834,84.0077782 L98.8156921,84.0077782 L98.8156921,84.0077782 C99.9197191,84.566022 100.984652,85.2322835 102,86 C100.855099,85.5719007 99.7410632,85.0301813 98.669134,84.3803075 L98.7357513,84.3803075 L97.623242,84.3803075 C96.0826828,84.4948904 94.537204,84.4678184 93,84.2993229 Z" id="Path" fill="#EB996E" fill-rule="nonzero"></path>
                        <path d="M153,80 C152.977881,80.1048873 152.947074,80.2076887 152.907908,80.3073069 L152.579006,81.1691023 L151.302869,84.4025052 L146.698251,95.8864301 L146.652204,96 L146.527222,96 L133.009377,93.3745303 L118.386424,90.5018789 L118.353534,90.5018789 L118.353534,90.5018789 L109.381106,83.3402923 L106.874878,81.3361169 L106.217075,80.788309 C106.136729,80.7310098 106.063799,80.6636756 106,80.5878914 C106.087013,80.6341615 106.168651,80.6901821 106.243387,80.7549061 L106.90119,81.2626305 L109.453464,83.2267223 C111.670259,84.9503132 114.781666,87.3820459 118.504829,90.2947808 L118.445626,90.2613779 L133.068579,93.0939457 L146.586424,95.7661795 L146.415395,95.8597077 L151.13184,84.4292276 C151.710707,83.0931106 152.164591,81.977453 152.486914,81.2091858 C152.644787,80.8551148 152.763191,80.5411273 152.861861,80.3607516 C152.896339,80.2362563 152.942601,80.1154425 153,80 Z" id="Path" fill="#EB996E" fill-rule="nonzero"></path>
                        <path d="M149.984712,106 C149.832701,105.442945 149.716776,104.876681 149.637656,104.304729 C149.373535,102.945249 149.006136,101.607851 148.538647,100.304145 C148.062142,99.0022818 147.488532,97.737981 146.82265,96.5218914 C146.514516,96.0336414 146.239676,95.5251915 146,95 C146.40378,95.4210406 146.749595,95.8939724 147.028313,96.4063047 C147.761003,97.6033263 148.372444,98.8703413 148.853568,100.188558 C149.33148,101.509702 149.673865,102.875925 149.875454,104.2662 C149.987344,104.836906 150.024075,105.419779 149.984712,106 Z" id="Path" fill="#EB996E" fill-rule="nonzero"></path>
                    </g>
                    <g id="freepik--coffee-2--inject-231-copy" transform="translate(94.000000, 101.000000)">
                        <polygon id="Path" fill="#23527C" fill-rule="nonzero" points="16.7801578 46 20 26.1575342 3 26 5.6832018 46"></polygon>
                        <path d="M19.066496,30.0312411 C19.066496,30.0312411 26.5357588,29.1715723 25.9693397,36.4713456 C25.4029206,43.7711188 17,41.740522 17,41.740522 L17,38.9465987 C17,38.9465987 23.6351951,38.8132018 22.8758201,35.7450737 C22.116445,32.6769457 17.70958,33.1808894 17.70958,33.1808894 L19.066496,30.0312411 Z" id="Path" fill="#23527C" fill-rule="nonzero"></path>
                        <path d="M1.02083487,10.3173868 C1.09904135,9.31491216 1.3609205,8.33902249 1.79136531,7.44601386 C2.15823178,6.71444312 2.63115811,6.05051072 3.19232973,5.47922622 C3.75296307,4.90312525 4.37750091,4.40365826 5.05179161,3.99214289 C5.17050388,3.91643354 5.29938993,3.86095346 5.43387282,3.82767284 C5.55889952,3.77536994 5.67507606,3.70128229 5.77774591,3.60837944 C6.25733623,3.12608379 6.62582298,2.53009233 6.85394131,1.86773812 C7.025773,1.25978123 7.32413918,0.701983005 7.72636006,0.236743492 C8.13391335,-0.119608275 8.85986765,-0.133314112 9.67497422,0.613654015 C10.7842281,1.77869687 11.3277357,3.4320969 11.1459869,5.08860986 C11.106018,5.68303905 10.9903107,6.26873465 10.8021138,6.82925119 C10.5924495,7.43211817 10.3189443,8.00698454 9.98700721,8.54248084 C9.3502052,9.52930112 8.78345141,10.2282988 8.58604278,10.6463268 L8.53509862,10.7628265 L8.7197712,10.7628265 L8.7197712,10.7628265 C8.74036347,10.7997094 8.75743194,10.8387418 8.77071537,10.8793261 C8.8310154,11.0484047 8.90120406,11.2132046 8.98086003,11.3727362 C9.09515266,11.5946325 9.22057563,11.8096749 9.35657322,12.0169106 C9.48393362,12.2156452 9.7004463,12.4966149 9.94243107,12.7981433 C10.4200326,13.3943472 11.0313625,14.1001978 11.6490605,14.9156951 C12.3147048,15.7789806 12.8753647,16.7300657 13.3174817,17.7459505 C13.785336,18.8169181 14.0184506,19.989186 13.9988599,21.1724098 C13.9988599,23.26255 13.0118168,24.9826326 11.9929335,25.6336598 C10.9740503,26.2846871 10.2098879,25.9625999 9.96153513,25.4828956 C9.76842639,24.9170203 9.61099152,24.3377772 9.49030164,23.7491072 C9.24363959,23.1573519 8.91750923,22.6078164 8.52236258,22.1181126 C8.31362008,21.846683 8.0638993,21.6150141 7.78367225,21.4328207 C7.45890322,21.1449981 7.05134993,20.8160581 6.51006822,20.3774713 C5.96878651,19.9388845 5.28740836,19.3975039 4.49777386,18.629977 C4.04429848,18.2053596 3.61874222,17.747399 3.22416983,17.2593933 C2.77801571,16.6782484 2.38558668,16.0516676 2.05245413,15.3885465 C1.2645425,13.8392987 0.9064873,12.0791967 1.02083487,10.3173868 L1.02083487,10.3173868 Z" id="Path" fill="#23527C" fill-rule="nonzero"></path>
                        <g id="Group" opacity="0.8" fill="#fff" fill-rule="nonzero">
                            <path d="M0.579090909,10.2266667 C0.657243554,9.25143781 0.918942425,8.30207134 1.34909091,7.43333333 C1.71570483,6.72164558 2.1883056,6.07575785 2.74909091,5.52 C3.30933831,4.95955657 3.93344621,4.47366435 4.60727273,4.07333333 C4.72590328,3.99968165 4.8547006,3.94570944 4.98909091,3.91333333 C5.11403154,3.86245195 5.2301281,3.79037789 5.33272727,3.7 C5.81198744,3.23081241 6.18022053,2.65101909 6.40818182,2.00666667 C6.57989523,1.41523313 6.87805601,0.872595008 7.28,0.42 C7.68727273,0.0733333333 8.41272727,0.06 9.22727273,0.786666667 C10.335763,1.92004542 10.8788964,3.52850855 10.6972727,5.14 C10.6573314,5.7182735 10.5417037,6.28805078 10.3536364,6.83333333 C10.1441164,7.41981531 9.87079945,7.97905768 9.53909091,8.5 C8.90272727,9.46 8.33636364,10.14 8.13909091,10.5466667 L8.08818182,10.66 L8.27272727,10.66 L8.27272727,10.66 C8.29330537,10.6958805 8.31036208,10.733852 8.32363636,10.7733333 C8.38389489,10.9378167 8.45403523,11.0981375 8.53363636,11.2533333 C8.64785032,11.4691988 8.77318695,11.6783967 8.90909091,11.88 C9.03636364,12.0733333 9.25272727,12.3466667 9.49454545,12.64 C9.97181818,13.22 10.5827273,13.9066667 11.2,14.7 C11.8651861,15.5398226 12.42546,16.4650587 12.8672727,17.4533333 C13.3348049,18.4951937 13.567759,19.635601 13.5481818,20.7866667 C13.5481818,22.82 12.5618182,24.4933333 11.5436364,25.1266667 C10.5254545,25.76 9.76181818,25.4466667 9.51363636,24.98 C9.32066056,24.4295043 9.16333407,23.8660042 9.04272727,23.2933333 C8.79623503,22.7176611 8.47032917,22.1830611 8.07545455,21.7066667 C7.86685574,21.4426141 7.61730687,21.2172416 7.33727273,21.04 C7.01272727,20.76 6.60545455,20.44 6.06454545,20.0133333 C5.52363636,19.5866667 4.84272727,19.06 4.05363636,18.3133333 C3.60047315,17.9002563 3.17520985,17.4547424 2.78090909,16.98 C2.3350621,16.4146497 1.94290322,15.8050984 1.61,15.16 C0.822630773,13.6528584 0.464822055,11.9405933 0.579090909,10.2266667 L0.579090909,10.2266667 Z" id="Path"></path>
                        </g>
                        <g id="Group" opacity="0.3" transform="translate(9.000000, 32.000000)" fill="#000000" fill-rule="nonzero">
                            <path d="M1.22142857,6.363 C1.22813165,5.60126368 1.45876894,4.85757004 1.88571429,4.221 C2.24285714,3.682 2.67142857,3.213 3.02142857,2.744 C3.33675623,2.3319688 3.57829414,1.87038985 3.73571429,1.379 C3.79747864,1.18574299 3.83583732,0.986038113 3.85,0.784 L3.94285714,0.833 C4.43207738,1.15939283 4.76872864,1.66308478 4.87857143,2.233 C4.97390394,2.80850078 4.94715686,3.39708236 4.8,3.962 C4.6681692,4.64528851 4.34690401,5.27981197 3.87142857,5.796 C3.28813511,6.36933826 2.45756146,6.63022357 1.64285714,6.496 C1.49855224,6.46429644 1.35749346,6.41977924 1.22142857,6.363 L1.22142857,6.363 Z" id="Path"></path>
                            <path d="M0.364285714,4.459 C0.394482645,3.68483143 0.546264702,2.91984987 0.814285714,2.191 C1.0992234,1.44625383 1.72710227,0.877665801 2.50714286,0.658 C2.91047214,0.553107213 3.33699679,0.572662495 3.72857143,0.714 C3.70365607,0.921480935 3.65575455,1.12568513 3.58571429,1.323 C3.40347381,1.78628363 3.14796688,2.21857243 2.82857143,2.604 C2.47857143,3.052 2.04285714,3.521 1.66428571,4.088 C1.30775242,4.62421632 1.08732893,5.23625888 1.02142857,5.873 C1.01451168,6.00124382 1.01451168,6.12975618 1.02142857,6.258 C0.819248884,6.1413468 0.651784109,5.97481786 0.535714286,5.775 C0.349307244,5.36197517 0.289736717,4.9046721 0.364285714,4.459 L0.364285714,4.459 Z" id="Path"></path>
                        </g>
                    </g>
                </g>
            </g>
            <g id="freepik--Plant--inject-123-Copy" opacity="0.134114583" mask="url(#mask-2)" fill-rule="nonzero">
                <g transform="translate(21.000000, 215.500000) scale(-1, 1) translate(-21.000000, -215.500000) translate(-34.000000, 68.000000)" id="Path">
                    <path d="M45.0183391,255.672897 C45.087853,255.453268 45.1785318,255.24096 45.2890899,255.038982 C45.4996738,254.586185 45.7854663,253.982456 46.1314257,253.212702 C47.1778718,250.855201 48.0183499,248.410983 48.6433913,245.907582 C50.2979795,239.417496 50.8846062,229.501249 48.4328074,217.728535 C47.1011924,211.30837 45.3577393,204.981204 43.2133339,198.78654 C41.0172441,192.070056 38.4451116,184.946055 36.3543139,177.233418 C33.9936885,169.189504 32.8527873,160.834947 32.969929,152.450346 C33.2858049,143.681184 35.8729791,134.942208 38.7158624,126.218325 C41.5587457,117.494442 44.4918792,108.996958 45.3642985,100.393821 C46.3341587,92.1438985 44.6810917,83.7974322 40.6412014,76.5465284 C36.8807737,69.5885527 32.1426349,63.6267297 28.607833,57.4686948 C25.2985529,51.74667 22.8599399,45.5605815 21.3727702,39.1153358 C19.2383638,29.7838857 19.0795087,20.1068151 20.9064772,10.7098904 C21.5720708,7.27165755 22.5799026,3.90914048 23.9148193,0.672897196 C23.8743848,0.899194486 23.8139802,1.12143661 23.7343188,1.336999 L23.1326504,3.2538383 C22.6212322,4.94427926 21.9443552,7.4799407 21.2975617,10.8004497 C19.6161831,20.1550117 19.8670451,29.7563753 22.0346055,39.0096832 C23.5434136,45.3764871 25.992185,51.4812265 29.2997517,57.1215506 C32.8345536,63.1588398 37.5877341,69.1961289 41.438412,76.1842911 C45.5768719,83.5819158 47.2774673,92.1034463 46.2968845,100.52966 C45.4094236,109.253542 42.4612483,117.841586 39.6183651,126.550376 C36.7754818,135.259165 34.218391,143.907582 33.9025151,152.525812 C33.7679812,160.826856 34.8836206,169.100684 37.2116914,177.067393 C39.2724057,184.73475 41.7994131,191.858751 43.9804611,198.605422 C46.1046349,204.833697 47.8131414,211.196989 49.0946427,217.653069 C51.4862746,229.516342 50.8093976,239.538242 49.0946427,246.043421 C48.4235994,248.551699 47.5222537,250.992151 46.4021765,253.333448 L45.4695904,255.129541 C45.3402602,255.327293 45.1888638,255.509591 45.0183391,255.672897 L45.0183391,255.672897 Z" fill="#263238"></path>
                    <path d="M33.7491332,63.6728972 C33.7491332,63.6728972 26.1727672,40.4953903 39.7721857,26.931023 C39.9872969,26.7084695 40.3152911,26.6205832 40.6202122,26.7037936 C40.9251333,26.7870041 41.1550068,27.0271279 41.2145483,27.3246319 C41.9436547,31.154749 42.8471126,42.8116271 33.7491332,63.6728972 Z" fill="#23527C"></path>
                    <path d="M38.6448598,34.6728972 C38.6200088,36.1109774 38.4442048,37.5434297 38.1199221,38.9500938 C37.5949843,41.9077298 36.988025,45.3658888 36.3318528,49.1880646 C35.6756806,53.0102403 35.0687213,56.4835667 34.5601879,59.4260353 C34.4168028,60.8605092 34.1424193,62.281196 33.7399726,63.6728972 C33.5860157,62.2385929 33.6190613,60.7923783 33.8383984,59.3653658 C34.1008673,56.7110771 34.6094008,53.0709097 35.3147859,49.0667256 C36.020171,45.0625415 36.7911733,41.4830436 37.3981326,38.8590897 C37.6375202,37.4238692 38.0558832,36.0191126 38.6448598,34.6728972 L38.6448598,34.6728972 Z" fill="#263238"></path>
                    <path d="M22.6448598,42.6728972 C22.6448598,42.6728972 1.11555711,31.3528595 0.644859813,12.5013452 C0.642389618,12.2002227 0.80447308,11.9218576 1.06730208,11.775884 C1.33013108,11.6299104 1.65158766,11.6397205 1.90506609,11.8014504 C5.10865063,14.0228557 14.0058096,21.6912683 22.6448598,42.6728972 Z" fill="#23527C"></path>
                    <path d="M5.64485981,19.6728972 C6.63825528,20.71784 7.52359705,21.8661194 8.28665086,23.0992736 C10.0179941,25.5422954 12.0329195,28.4308998 14.2568001,31.6114375 L20.2269494,40.0928716 C21.1364425,41.2084729 21.9457304,42.4067272 22.6448598,43.6728972 C21.5533034,42.7378225 20.5760102,41.6698364 19.7344121,40.4923594 C18.0478449,38.4334606 15.8388897,35.4833966 13.5105315,32.1492096 C11.1821732,28.8150227 9.13739713,25.7266744 7.73441205,23.4680316 C6.91173258,22.281139 6.21143354,21.0092259 5.64485981,19.6728972 L5.64485981,19.6728972 Z" fill="#263238"></path>
                    <path d="M46.6448598,92.6728972 C46.6448598,92.6728972 24.2251527,82.9294092 22.6478099,64.5283486 C22.6219095,64.2335783 22.7680744,63.949532 23.0263425,63.7927361 C23.2846105,63.6359401 23.6115083,63.6327872 23.8729305,63.7845709 C27.2266982,65.7630196 36.6448129,72.6950279 46.6448598,92.6728972 Z" fill="#23527C"></path>
                    <path d="M27.6448598,69.6728972 C28.7300535,70.6530316 29.7097742,71.7446882 30.5679367,72.9299442 L37.2448598,81.095716 L43.9371675,89.2306153 C44.9396715,90.295218 45.8458064,91.4471849 46.6448598,92.6728972 C45.4644266,91.7986962 44.3904035,90.7884207 43.4448598,89.6628301 C41.598706,87.6869912 39.1371675,84.8775952 36.5371675,81.6822932 C33.9371675,78.4869912 31.6602444,75.5077965 30.0602444,73.3312865 C29.1227386,72.2052113 28.3126542,70.9782415 27.6448598,69.6728972 L27.6448598,69.6728972 Z" fill="#263238"></path>
                </g>
            </g>
            <g id="freepik--Plant--inject-123-Copy-2" mask="url(#mask-2)" fill-rule="nonzero">
                <g transform="translate(15.000000, 206.500000) scale(-1, 1) translate(-15.000000, -206.500000) translate(-40.000000, 59.000000)" id="Path">
                    <path d="M45.0183391,255.672897 C45.087853,255.453268 45.1785318,255.24096 45.2890899,255.038982 C45.4996738,254.586185 45.7854663,253.982456 46.1314257,253.212702 C47.1778718,250.855201 48.0183499,248.410983 48.6433913,245.907582 C50.2979795,239.417496 50.8846062,229.501249 48.4328074,217.728535 C47.1011924,211.30837 45.3577393,204.981204 43.2133339,198.78654 C41.0172441,192.070056 38.4451116,184.946055 36.3543139,177.233418 C33.9936885,169.189504 32.8527873,160.834947 32.969929,152.450346 C33.2858049,143.681184 35.8729791,134.942208 38.7158624,126.218325 C41.5587457,117.494442 44.4918792,108.996958 45.3642985,100.393821 C46.3341587,92.1438985 44.6810917,83.7974322 40.6412014,76.5465284 C36.8807737,69.5885527 32.1426349,63.6267297 28.607833,57.4686948 C25.2985529,51.74667 22.8599399,45.5605815 21.3727702,39.1153358 C19.2383638,29.7838857 19.0795087,20.1068151 20.9064772,10.7098904 C21.5720708,7.27165755 22.5799026,3.90914048 23.9148193,0.672897196 C23.8743848,0.899194486 23.8139802,1.12143661 23.7343188,1.336999 L23.1326504,3.2538383 C22.6212322,4.94427926 21.9443552,7.4799407 21.2975617,10.8004497 C19.6161831,20.1550117 19.8670451,29.7563753 22.0346055,39.0096832 C23.5434136,45.3764871 25.992185,51.4812265 29.2997517,57.1215506 C32.8345536,63.1588398 37.5877341,69.1961289 41.438412,76.1842911 C45.5768719,83.5819158 47.2774673,92.1034463 46.2968845,100.52966 C45.4094236,109.253542 42.4612483,117.841586 39.6183651,126.550376 C36.7754818,135.259165 34.218391,143.907582 33.9025151,152.525812 C33.7679812,160.826856 34.8836206,169.100684 37.2116914,177.067393 C39.2724057,184.73475 41.7994131,191.858751 43.9804611,198.605422 C46.1046349,204.833697 47.8131414,211.196989 49.0946427,217.653069 C51.4862746,229.516342 50.8093976,239.538242 49.0946427,246.043421 C48.4235994,248.551699 47.5222537,250.992151 46.4021765,253.333448 L45.4695904,255.129541 C45.3402602,255.327293 45.1888638,255.509591 45.0183391,255.672897 L45.0183391,255.672897 Z" fill="#263238"></path>
                    <path d="M33.7491332,63.6728972 C33.7491332,63.6728972 26.1727672,40.4953903 39.7721857,26.931023 C39.9872969,26.7084695 40.3152911,26.6205832 40.6202122,26.7037936 C40.9251333,26.7870041 41.1550068,27.0271279 41.2145483,27.3246319 C41.9436547,31.154749 42.8471126,42.8116271 33.7491332,63.6728972 Z" fill="#23527C"></path>
                    <path d="M38.6448598,34.6728972 C38.6200088,36.1109774 38.4442048,37.5434297 38.1199221,38.9500938 C37.5949843,41.9077298 36.988025,45.3658888 36.3318528,49.1880646 C35.6756806,53.0102403 35.0687213,56.4835667 34.5601879,59.4260353 C34.4168028,60.8605092 34.1424193,62.281196 33.7399726,63.6728972 C33.5860157,62.2385929 33.6190613,60.7923783 33.8383984,59.3653658 C34.1008673,56.7110771 34.6094008,53.0709097 35.3147859,49.0667256 C36.020171,45.0625415 36.7911733,41.4830436 37.3981326,38.8590897 C37.6375202,37.4238692 38.0558832,36.0191126 38.6448598,34.6728972 L38.6448598,34.6728972 Z" fill="#263238"></path>
                    <path d="M41.6448598,117.672897 C41.6448598,117.672897 46.2067652,93.6571779 64.5478047,87.7179702 C64.8426428,87.6173529 65.1702923,87.6881392 65.3943701,87.9008646 C65.618448,88.1135899 65.7005651,88.4318101 65.6065404,88.7230668 C64.3921083,92.4236501 59.5810886,103.190368 41.6448598,117.672897 Z" fill="#23527C"></path>
                    <path d="M22.6448598,42.6728972 C22.6448598,42.6728972 1.11555711,31.3528595 0.644859813,12.5013452 C0.642389618,12.2002227 0.80447308,11.9218576 1.06730208,11.775884 C1.33013108,11.6299104 1.65158766,11.6397205 1.90506609,11.8014504 C5.10865063,14.0228557 14.0058096,21.6912683 22.6448598,42.6728972 Z" fill="#23527C"></path>
                    <path d="M5.64485981,19.6728972 C6.63825528,20.71784 7.52359705,21.8661194 8.28665086,23.0992736 C10.0179941,25.5422954 12.0329195,28.4308998 14.2568001,31.6114375 L20.2269494,40.0928716 C21.1364425,41.2084729 21.9457304,42.4067272 22.6448598,43.6728972 C21.5533034,42.7378225 20.5760102,41.6698364 19.7344121,40.4923594 C18.0478449,38.4334606 15.8388897,35.4833966 13.5105315,32.1492096 C11.1821732,28.8150227 9.13739713,25.7266744 7.73441205,23.4680316 C6.91173258,22.281139 6.21143354,21.0092259 5.64485981,19.6728972 L5.64485981,19.6728972 Z" fill="#263238"></path>
                    <path d="M46.6448598,92.6728972 C46.6448598,92.6728972 24.2251527,82.9294092 22.6478099,64.5283486 C22.6219095,64.2335783 22.7680744,63.949532 23.0263425,63.7927361 C23.2846105,63.6359401 23.6115083,63.6327872 23.8729305,63.7845709 C27.2266982,65.7630196 36.6448129,72.6950279 46.6448598,92.6728972 Z" fill="#23527C"></path>
                    <path d="M27.6448598,69.6728972 C28.7300535,70.6530316 29.7097742,71.7446882 30.5679367,72.9299442 L37.2448598,81.095716 L43.9371675,89.2306153 C44.9396715,90.295218 45.8458064,91.4471849 46.6448598,92.6728972 C45.4644266,91.7986962 44.3904035,90.7884207 43.4448598,89.6628301 C41.598706,87.6869912 39.1371675,84.8775952 36.5371675,81.6822932 C33.9371675,78.4869912 31.6602444,75.5077965 30.0602444,73.3312865 C29.1227386,72.2052113 28.3126542,70.9782415 27.6448598,69.6728972 L27.6448598,69.6728972 Z" fill="#263238"></path>
                </g>
            </g>
        </g>
    </g>
</svg>